Longitudinal Data Analysis
…
```r
df %>% 
  pivot_longer(week_0:week_6, names_to = "week", values_to = "lead_level")
```

```
## # A tibble: 400 x 4
##       ID group week   lead_level
##    <int> <fct> <chr>       <dbl>
##  1     1 P     week_0       30.8
##  2     1 P     week_1       26.9
##  3     1 P     week_4       25.8
##  4     1 P     week_6       23.8
##  5     2 T     week_0       26.5
##  6     2 T     week_1       14.8
##  7     2 T     week_4       19.5
##  8     2 T     week_6       21  
##  9     3 T     week_0       25.8
## 10     3 T     week_1       23  
## # … with 390 more rows
```
…
